<svg width="174" height="24" viewBox="0 0 174 24" fill="none" xmlns="http://www.w3.org/2000/svg">
<g clip-path="url(#clip0)">
<path d="M3.02562 1.466C3.38154 1.466 3.67814 1.76827 3.67814 2.13099C3.57433 4.76071 3.51501 5.62217 3.48535 8.20656C6.25856 5.24434 9.03176 2.67507 12.2202 0.151142C12.502 -0.105785 12.9024 -0.0151045 13.1248 0.256936L14.4744 2.05542C14.6672 2.34258 14.6078 2.75064 14.3409 2.97734C11.9978 4.85139 9.61013 7.0126 7.5191 9.12847C10.6779 12.8766 13.6142 16.9874 16.1205 21.2494C16.3133 21.5516 16.2243 22.005 15.9277 22.1713L14.0295 23.3501C13.7032 23.5164 13.3176 23.4106 13.1545 23.0932C10.6779 18.9521 8.15679 15.3703 5.08699 11.7129C4.62726 12.2116 4.01923 12.9219 3.51501 13.5265C3.54467 16.5189 3.64848 19.3753 3.79678 22.4584C3.82644 22.8212 3.54467 23.1083 3.18875 23.1234L0.964255 23.2292C0.608336 23.2292 0.326566 22.9421 0.311736 22.5793C0.0892866 18.6348 0.0151367 14.5995 0.0151367 10.5945C0.0151367 7.73804 0.0744566 4.85139 0.148606 2.0252C0.163436 1.66248 0.460036 1.40555 0.830785 1.40555L3.02562 1.466Z" fill="#472819"/>
<path d="M33.2785 13.0732C33.2785 17.4712 30.6387 23.985 25.641 23.985C21.7111 23.985 17.8701 19.7079 17.8701 12.9825C17.8701 7.97997 20.584 2.01019 25.5817 2.01019C30.268 2.02531 33.2785 7.42077 33.2785 13.0732ZM25.6262 5.57694C23.461 5.57694 21.3996 8.69029 21.3996 12.9976C21.3996 17.3049 23.461 20.4183 25.6262 20.4183C28.5329 20.4183 29.7786 15.718 29.7786 12.9976C29.7786 10.9573 29.2892 8.96233 28.3252 7.48123C27.4651 6.16636 26.5012 5.57694 25.6262 5.57694Z" fill="#472819"/>
<path d="M42.5323 0.846375C47.0703 0.846375 51.104 3.34008 51.104 8.47862C51.0151 12.9068 47.3076 17.6524 40.3672 17.6524C39.8778 17.6524 39.3291 17.6524 38.7952 17.592L38.9286 22.6549C38.9286 23.0177 38.632 23.3502 38.2761 23.3502L36.0813 23.3804C35.755 23.3804 35.4288 23.0932 35.4288 22.7607L34.9246 3.9295C34.9246 3.73302 35.0877 3.43076 35.2508 3.30985C37.3863 2.10078 39.8036 1.01262 42.473 0.846375H42.5323ZM38.6914 13.995C39.2697 14.0857 39.8184 14.1008 40.3078 14.1008C45.1127 14.1008 47.6338 11.1083 47.6338 8.41816C47.6338 5.68265 45.2462 4.41313 42.7696 4.41313C41.2866 4.47358 39.774 5.063 38.4541 5.78844L38.6914 13.995Z" fill="#472819"/>
<path d="M55.2269 2.52402C55.5828 2.49379 55.9091 2.75072 55.9388 3.11344C56.4281 9.65752 56.5913 16.2167 56.5913 22.7608C56.5913 23.1235 56.3095 23.4107 55.9536 23.4107H53.9219C53.566 23.4107 53.2694 23.1084 53.2694 22.7457C53.2694 16.3376 53.1359 9.86911 52.6169 3.46105C52.5872 3.09833 52.8393 2.76583 53.1952 2.73561L55.2269 2.52402Z" fill="#472819"/>
<path d="M26.5159 3.62718C23.1495 4.56421 23.7427 8.90174 24.4545 11.5012C24.8846 13.0881 25.4778 14.6599 25.5519 16.3224C25.6261 18.1662 25.0032 19.9043 24.41 21.6121C24.0838 22.534 25.5223 22.9269 25.8337 22.0201C26.3527 20.5541 26.8421 19.0881 27.0053 17.5466C27.1536 16.0352 26.857 14.5541 26.4714 13.1033C26.0858 11.6826 25.5668 10.2619 25.4185 8.79595C25.2702 7.45086 25.3888 5.53146 26.9311 5.10829C27.8209 4.83625 27.4353 3.37026 26.5159 3.62718Z" fill="#472819"/>
<path d="M78.7024 8.1762C78.3613 8.22154 78.0499 7.99484 78.0054 7.64723C77.7237 6.12078 76.0924 4.92683 74.2979 4.92683C70.7832 4.92683 69.0926 9.27947 69.0926 12.6498C69.0926 16.2316 70.7239 19.5868 73.9865 19.5868C77.1453 19.5868 78.1241 17.0477 78.4355 14.3727C76.9673 14.3727 75.514 14.3424 74.0903 14.3424C73.7492 14.3424 73.4674 14.0855 73.4674 13.7077V11.622C73.4674 11.2744 73.7492 11.0175 74.0903 11.0175L81.179 11.0477C81.4905 11.0477 81.7722 11.2896 81.8019 11.6069C81.8315 11.9545 81.8316 12.3777 81.8316 12.7707C81.8316 17.622 80.0668 22.9268 74.12 22.9268C68.5291 22.9268 65.8152 17.9697 65.8152 12.6195C65.8152 7.20895 68.707 1.617 74.4314 1.617C77.5605 1.617 80.7193 3.91423 81.2828 7.10315C81.3273 7.45076 81.1049 7.76814 80.7638 7.81348L78.7024 8.1762Z" fill="#472819"/>
<path d="M97.4029 8.00998C97.4029 10.4886 95.9792 13.0427 93.0281 14.6296L95.8161 20.6145C95.9496 20.9319 95.8161 21.2946 95.5047 21.4609L93.5916 22.3526C93.2802 22.4886 92.9391 22.3526 92.7908 22.0352L89.899 15.7782C88.935 15.9898 87.9859 16.0956 87.0219 16.1712L87.1999 20.8866C87.1999 21.2342 86.9478 21.5213 86.577 21.5213H84.5898C84.2784 21.5213 83.967 21.2644 83.967 20.947L83.3738 3.11326C83.3738 2.87144 83.5517 2.58429 83.7594 2.50872L84.2784 2.26691C85.7762 1.60192 86.8885 1.16364 89.113 1.16364C94.5407 1.2392 97.4029 4.50369 97.4029 8.00998ZM86.9626 12.9672C89.9138 12.7858 94.1255 11.4407 94.1255 8.04021C94.1255 6.16615 92.3459 4.36767 89.0537 4.36767C88.2528 4.36767 87.4224 4.47346 86.6512 4.68505L86.9626 12.9672Z" fill="#472819"/>
<path d="M118.269 21.3551C118.269 21.7027 117.987 21.9597 117.646 21.9597H115.837C115.496 21.9597 115.243 21.7027 115.243 21.3551V2.55412C115.243 2.20652 115.496 1.91936 115.837 1.91936L117.601 1.87402C117.75 1.87402 118.046 2.05538 118.12 2.1914C119.959 5.12339 121.665 8.02516 123.37 10.9723C124.245 12.5289 124.334 12.7405 125.417 14.539C125.239 11.9093 125.135 9.15866 125.135 6.46848C125.135 5.15362 125.165 3.80853 125.209 2.50878C125.239 2.1914 125.521 1.90425 125.832 1.90425L127.908 1.9647C128.249 1.9647 128.531 2.28208 128.531 2.62969C128.501 3.73297 128.487 4.86647 128.487 6.0302C128.487 11.1687 128.798 16.5491 129.317 21.4912C129.347 21.8388 129.109 22.1561 128.768 22.1713L126.692 22.4131C126.485 22.4433 126.203 22.3073 126.099 22.1259C124.394 19.3602 122.703 16.5037 121.072 13.6927H121.101C119.781 11.4559 119.603 11.0629 118.284 8.84128V21.3551H118.269Z" fill="#472819"/>
<path d="M130.815 3.14353C130.785 2.78081 131.022 2.46343 131.378 2.4332L145.793 1.08811C146.134 1.05789 146.416 1.32993 146.446 1.66242L146.594 3.7934C146.624 4.14101 146.386 4.45839 146.03 4.4735C143.732 4.60952 142.026 4.73043 139.787 4.9269C139.757 5.74302 139.787 6.48358 139.787 7.26947C139.787 12.0151 139.965 16.7153 140.38 21.5365C140.41 21.8992 140.143 22.2015 139.817 22.2166L137.74 22.3677C137.399 22.3979 137.088 22.1561 137.073 21.8085C136.687 17.0931 136.509 12.2418 136.509 7.43572C136.509 6.45335 136.48 6.22665 136.509 5.24428C134.938 5.3803 133.351 5.56167 131.749 5.77325C131.408 5.80348 131.097 5.56167 131.052 5.21406L130.815 3.14353Z" fill="#472819"/>
<path d="M164.153 2.58434C164.494 2.56923 164.761 2.84127 164.761 3.20399L165.117 19.1335L173.318 18.937C173.659 18.9219 173.94 19.1788 173.955 19.5566L174 21.4307C174.015 21.7934 173.762 22.0654 173.421 22.0806L170.737 22.2015C168.053 22.3224 165.354 22.4584 162.67 22.5188C162.329 22.534 162.047 22.277 162.032 21.9294L161.483 3.29467C161.468 2.93195 161.721 2.65991 162.062 2.64479L164.153 2.58434Z" fill="#472819"/>
<path d="M102.356 17.9394C102.267 17.879 101.111 17.0024 100.399 15.8236C100.206 15.5062 100.028 15.1586 99.865 14.7958C99.2718 13.4659 98.99 11.9848 98.99 10.3525C98.99 8.72028 99.2866 7.23917 99.865 5.9092C100.443 4.57922 101.289 3.52129 102.356 2.76562C103.439 1.99484 104.67 1.617 106.049 1.617C107.428 1.617 108.659 1.99484 109.742 2.76562C110.809 3.5364 111.64 4.57922 112.233 5.9092C112.811 7.23917 113.108 8.72028 113.108 10.3525C113.108 11.9848 112.811 13.4659 112.233 14.7958C112.055 15.1888 111.877 15.5515 111.655 15.884C110.943 17.0326 109.92 17.8034 109.742 17.9394C107.413 19.7228 107.399 22.2467 106.108 22.2618C104.788 22.2921 104.729 19.7379 102.356 17.9394ZM109.074 15.9747C109.786 14.6447 110.142 12.7707 110.142 10.3374C110.142 7.90416 109.786 6.0301 109.074 4.70013C108.362 3.37015 107.354 2.72028 106.049 2.72028C104.744 2.72028 103.75 3.38527 103.039 4.70013C102.327 6.0301 101.971 7.90416 101.971 10.3374C101.971 12.7707 102.327 14.6447 103.039 15.9747C103.75 17.3047 104.744 17.9545 106.049 17.9545C107.354 17.9696 108.362 17.3047 109.074 15.9747Z" fill="#472819"/>
<path d="M106.064 16.7757L104.507 14.8866L102.831 16.5944L100.948 14.6145L101.452 13.874L102.831 15.3249L104.536 13.6019L106.064 15.4306L107.576 13.617L109.074 15.3249L110.379 13.8135L110.913 14.5238L109.074 16.6397L107.591 14.947L106.064 16.7757Z" fill="#472819"/>
<path d="M149.056 17.7733C148.967 17.6977 147.854 16.7758 147.172 15.5668C146.994 15.2343 146.831 14.8867 146.683 14.5239C146.149 13.1637 145.912 11.6826 145.986 10.0504C146.045 8.41815 146.401 6.95216 147.039 5.65241C147.677 4.35266 148.551 3.34007 149.664 2.61462C150.776 1.88918 152.022 1.55669 153.401 1.61714C154.78 1.6776 155.996 2.11588 157.034 2.91689C158.072 3.73301 158.858 4.80606 159.392 6.16626C159.926 7.52646 160.163 9.00757 160.089 10.6398C160.03 12.2721 159.674 13.7381 159.036 15.0378C158.843 15.4156 158.651 15.7784 158.413 16.1108C157.657 17.2292 156.604 17.9547 156.426 18.0907C154.024 19.7683 153.92 22.2922 152.615 22.262C151.325 22.2318 151.369 19.6776 149.056 17.7733ZM155.848 16.0957C156.619 14.796 157.049 12.937 157.138 10.5189C157.242 8.08566 156.96 6.19649 156.293 4.8514C155.625 3.50631 154.647 2.79599 153.356 2.73553C152.051 2.67508 151.028 3.29473 150.272 4.59447C149.515 5.89422 149.085 7.75316 148.982 10.1713C148.878 12.6046 149.16 14.4937 149.812 15.8388C150.465 17.1839 151.443 17.8942 152.734 17.9547C154.053 18.0151 155.091 17.3955 155.848 16.0957Z" fill="#472819"/>
<path d="M152.822 16.7758L151.325 14.8262L149.59 16.4585L147.795 14.4031L148.329 13.6776L149.649 15.189L151.428 13.5265L152.867 15.4308L154.454 13.6776L155.877 15.4459L157.242 13.995L157.746 14.7356L155.833 16.7607L154.409 15.0076L152.822 16.7758Z" fill="#472819"/>
</g>
<defs>
<clipPath id="clip0">
<rect width="174" height="24" fill="white"/>
</clipPath>
</defs>
</svg>
