<svg width="34" height="50" viewBox="0 0 34 50" fill="none" xmlns="http://www.w3.org/2000/svg">
<path d="M34 25.1542C34 34.8588 28.1752 49.2323 17.1473 49.2323C8.47546 49.2323 0 39.7945 0 24.9541C0 13.9156 5.98845 0.742676 17.0164 0.742676C27.3571 0.776025 34 12.6817 34 25.1542ZM17.1145 8.61306C12.3369 8.61306 7.78826 15.483 7.78826 24.9875C7.78826 34.492 12.3369 41.3619 17.1145 41.3619C23.5284 41.3619 26.2772 30.9903 26.2772 24.9875C26.2772 20.4853 25.1973 16.0833 23.0703 12.815C21.1723 9.91368 19.0452 8.61306 17.1145 8.61306Z" fill="#472819"/>
<path d="M19.0777 4.31075C11.6494 6.37839 12.9583 15.9496 14.5291 21.6856C15.478 25.1873 16.787 28.6556 16.9506 32.324C17.1142 36.3926 15.7398 40.2277 14.4309 43.9962C13.711 46.0305 16.8852 46.8975 17.5724 44.8966C18.7177 41.6617 19.7976 38.4269 20.1575 35.0253C20.4848 31.6904 19.8303 28.4221 18.9795 25.2206C18.1287 22.0858 16.9833 18.951 16.6561 15.7161C16.3289 12.7481 16.5907 8.51273 19.9939 7.57896C21.9573 6.97868 21.1065 3.74382 19.0777 4.31075Z" fill="#472819"/>
</svg>
