<svg width="100" height="100" viewBox="0 0 100 100" fill="none" xmlns="http://www.w3.org/2000/svg">
<g clip-path="url(#clip0)">
<path d="M50 14.4042C48.275 14.4042 46.875 13.0042 46.875 11.2792V3.125C46.875 1.4 48.275 0 50 0C51.725 0 53.125 1.4 53.125 3.125V11.2792C53.125 13.0042 51.725 14.4042 50 14.4042Z" fill="#A56F29"/>
<path d="M77.3792 25.7458C76.5792 25.7458 75.7792 25.4416 75.1709 24.8291C73.95 23.6083 73.95 21.6291 75.1709 20.4083L80.9375 14.6416C82.1584 13.4208 84.1375 13.4208 85.3584 14.6416C86.5792 15.8625 86.5792 17.8416 85.3584 19.0625L79.5917 24.8291C78.9792 25.4375 78.1792 25.7458 77.3792 25.7458Z" fill="#A56F29"/>
<path d="M96.875 53.125H88.7208C86.9958 53.125 85.5958 51.725 85.5958 50C85.5958 48.275 86.9958 46.875 88.7208 46.875H96.875C98.6 46.875 100 48.275 100 50C100 51.725 98.6 53.125 96.875 53.125Z" fill="#A56F29"/>
<path d="M83.1459 86.2708C82.3459 86.2708 81.5459 85.9666 80.9375 85.3541L75.1709 79.5874C73.95 78.3666 73.95 76.3874 75.1709 75.1666C76.3917 73.9458 78.3709 73.9458 79.5917 75.1666L85.3584 80.9333C86.5792 82.1541 86.5792 84.1333 85.3584 85.3541C84.7459 85.9666 83.9459 86.2708 83.1459 86.2708Z" fill="#A56F29"/>
<path d="M16.8542 86.2708C16.0542 86.2708 15.2542 85.9666 14.6458 85.3541C13.425 84.1333 13.425 82.1541 14.6458 80.9333L20.4125 75.1666C21.6333 73.9458 23.6125 73.9458 24.8333 75.1666C26.0542 76.3874 26.0542 78.3666 24.8333 79.5874L19.0667 85.3541C18.4542 85.9666 17.6542 86.2708 16.8542 86.2708Z" fill="#A56F29"/>
<path d="M11.2792 53.125H3.125C1.4 53.125 0 51.725 0 50C0 48.275 1.4 46.875 3.125 46.875H11.2792C13.0042 46.875 14.4042 48.275 14.4042 50C14.4042 51.725 13.0042 53.125 11.2792 53.125Z" fill="#A56F29"/>
<path d="M22.6208 25.7458C21.8208 25.7458 21.0208 25.4416 20.4125 24.8291L14.6458 19.0625C13.425 17.8416 13.425 15.8625 14.6458 14.6416C15.8667 13.4208 17.8458 13.4208 19.0667 14.6416L24.8333 20.4083C26.0542 21.6291 26.0542 23.6083 24.8333 24.8291C24.2167 25.4375 23.4208 25.7458 22.6208 25.7458Z" fill="#A56F29"/>
<path d="M62.5 87.5V92.7083C62.5 96.7083 59.2083 100 55.2083 100H44.7917C41.2917 100 37.5 97.3333 37.5 91.5V87.5H62.5Z" fill="#A56F29"/>
<path d="M68.375 27.3333C61.5417 21.7917 52.5417 19.625 43.75 21.5C32.7084 23.7917 23.75 32.7917 21.4584 43.8333C19.125 55.1667 23.375 66.4167 32.4584 73.2917C34.9167 75.125 36.625 77.9583 37.2084 81.25V81.2917C37.2917 81.25 37.4167 81.25 37.5 81.25H62.5C62.5834 81.25 62.625 81.25 62.7084 81.2917V81.25C63.2917 78.0833 65.1667 75.1667 68.0417 72.9167C75.0834 67.3333 79.1667 59 79.1667 50C79.1667 41.1667 75.25 32.9167 68.375 27.3333ZM65.625 52.0833C63.9167 52.0833 62.5 50.6667 62.5 48.9583C62.5 42.625 57.375 37.5 51.0417 37.5C49.3334 37.5 47.9167 36.0833 47.9167 34.375C47.9167 32.6667 49.3334 31.25 51.0417 31.25C60.7917 31.25 68.75 39.2083 68.75 48.9583C68.75 50.6667 67.3334 52.0833 65.625 52.0833Z" fill="#A56F29"/>
<path d="M37.2084 81.25H37.5C37.4167 81.25 37.2917 81.25 37.2084 81.2917V81.25Z" fill="#A56F29"/>
<path d="M62.7083 81.25V81.2917C62.625 81.25 62.5833 81.25 62.5 81.25H62.7083Z" fill="#A56F29"/>
</g>
<defs>
<clipPath id="clip0">
<rect width="100" height="100" fill="white"/>
</clipPath>
</defs>
</svg>
